%YAML 1.1
%TAG !u! tag:unity3d.com,2011:
--- !u!78 &1
TagManager:
  serializedVersion: 2
  tags: []
  layers:
  - Default
  - TransparentFX
  - Ignore Raycast
  - 
  - Water
  - UI
  - 
  - 
  - 
  - 
  - 
  - 
  - 
  - 
  - 
  - 
  - 
  - 
  - 
  - 
  - 
  - 
  - 
  - 
  - 
  - 
  - 
  - 
  - 
  - 
  - 
  - 
  m_SortingLayers:
  - name: Default
    uniqueID: 0
    locked: 0
  - name: BackgroundBack
    uniqueID: 704589319
    locked: 0
  - name: BackgroundMiddle
    uniqueID: 1467248311
    locked: 0
  - name: BackgroundFront
    uniqueID: 4195018861
    locked: 0
  - name: MiddlegroundBack
    uniqueID: 820899461
    locked: 0
  - name: MiddlegroundMiddle
    uniqueID: 1736087561
    locked: 0
  - name: MiddlegroundFront
    uniqueID: 458293273
    locked: 0
  - name: ForegroundBack
    uniqueID: 1247196919
    locked: 0
  - name: ForegroundMiddle
    uniqueID: 908849619
    locked: 0
  - name: ForegroundFront
    uniqueID: 2183575049
    locked: 0
